EESchema Schematic File Version 2
LIBS:power
LIBS:device
LIBS:transistors
LIBS:conn
LIBS:linear
LIBS:regul
LIBS:74xx
LIBS:cmos4000
LIBS:adc-dac
LIBS:memory
LIBS:xilinx
LIBS:microcontrollers
LIBS:dsp
LIBS:microchip
LIBS:analog_switches
LIBS:motorola
LIBS:texas
LIBS:intel
LIBS:audio
LIBS:interface
LIBS:digital-audio
LIBS:philips
LIBS:display
LIBS:cypress
LIBS:siliconi
LIBS:opto
LIBS:atmel
LIBS:contrib
LIBS:valves
LIBS:ameisso
LIBS:raspberryHeader-cache
EELAYER 25 0
EELAYER END
$Descr A4 11693 8268
encoding utf-8
Sheet 1 12
Title ""
Date ""
Rev ""
Comp ""
Comment1 ""
Comment2 ""
Comment3 ""
Comment4 ""
$EndDescr
$Comp
L CONN_02X20 P5
U 1 1 58AC6527
P 9650 2250
F 0 "P5" H 9650 3300 50  0000 C CNN
F 1 "RPI_HEADER" V 9650 2250 50  0000 C CNN
F 2 "Pin_Headers:Pin_Header_Straight_2x20_Pitch2.54mm" H 9650 1300 50  0001 C CNN
F 3 "" H 9650 1300 50  0000 C CNN
	1    9650 2250
	1    0    0    -1  
$EndComp
Text Label 8800 1800 0    60   ~ 0
BLUE_SWITCH
$Sheet
S 750  850  800  350 
U 58AC741F
F0 "oneButton" 60
F1 "oneButton.sch" 60
F2 "TO_GPIO" I R 1550 1050 60 
$EndSheet
Text Label 2100 1050 0    60   ~ 0
RED_SWITCH
$Sheet
S 750  1400 800  350 
U 58AF467B
F0 "oneButton2" 60
F1 "oneButton.sch" 60
F2 "TO_GPIO" I R 1550 1600 60 
$EndSheet
Text Label 2100 1600 0    60   ~ 0
BLUE_SWITCH
$Sheet
S 750  1950 800  350 
U 58AF4775
F0 "oneButton3" 60
F1 "oneButton.sch" 60
F2 "TO_GPIO" I R 1550 2150 60 
$EndSheet
Text Label 2100 2150 0    60   ~ 0
YELLOW_SWITCH
$Sheet
S 2900 850  800  350 
U 58AF499C
F0 "oneButton4" 60
F1 "oneButton.sch" 60
F2 "TO_GPIO" I R 3700 1050 60 
$EndSheet
Text Label 4250 1050 0    60   ~ 0
UP_SWITCH
$Sheet
S 2900 1400 800  350 
U 58AF49A1
F0 "oneButton5" 60
F1 "oneButton.sch" 60
F2 "TO_GPIO" I R 3700 1600 60 
$EndSheet
Text Label 4250 1600 0    60   ~ 0
DOWN_SWITCH
$Sheet
S 2900 1950 800  350 
U 58AF49A6
F0 "oneButton6" 60
F1 "oneButton.sch" 60
F2 "TO_GPIO" I R 3700 2150 60 
$EndSheet
Text Label 4250 2150 0    60   ~ 0
LEFT_SWITCH
$Sheet
S 2900 2500 800  350 
U 58AF4B16
F0 "oneButton7" 60
F1 "oneButton.sch" 60
F2 "TO_GPIO" I R 3700 2700 60 
$EndSheet
Text Label 4250 2700 0    60   ~ 0
RIGHT_SWITCH
$Sheet
S 5100 850  800  350 
U 58AF4F73
F0 "oneButton8" 60
F1 "oneButton.sch" 60
F2 "TO_GPIO" I R 5900 1050 60 
$EndSheet
Text Label 6450 1050 0    60   ~ 0
SHUTDOWN_SWITCH
$Sheet
S 5100 1400 800  350 
U 58AF5010
F0 "oneButton9" 60
F1 "oneButton.sch" 60
F2 "TO_GPIO" I R 5900 1600 60 
$EndSheet
Text Label 6450 1600 0    60   ~ 0
SYPHON_SWITCH
$Sheet
S 5100 1950 800  350 
U 58AF50CF
F0 "oneButton10" 60
F1 "oneButton.sch" 60
F2 "TO_GPIO" I R 5900 2150 60 
$EndSheet
Text Label 6450 2150 0    60   ~ 0
PERF_SWITCH
$Sheet
S 5100 2500 800  350 
U 58AF530E
F0 "oneButton11" 60
F1 "oneButton.sch" 60
F2 "TO_GPIO" I R 5900 2700 60 
$EndSheet
Text Label 6450 2700 0    60   ~ 0
EXTRA_SWITCH
Text Label 8800 1900 0    60   ~ 0
RED_SWITCH
Text Label 9950 1800 0    60   ~ 0
YELLOW_SWITCH
Text Label 8800 2000 0    60   ~ 0
UP_SWITCH
Text Label 9950 2000 0    60   ~ 0
LEFT_SWITCH
Text Label 9950 2100 0    60   ~ 0
DOWN_SWITCH
Wire Wire Line
	8800 1800 9400 1800
Wire Wire Line
	1550 1050 2100 1050
Wire Wire Line
	1550 1600 2100 1600
Wire Wire Line
	1550 2150 2100 2150
Wire Wire Line
	3700 1050 4250 1050
Wire Wire Line
	3700 1600 4250 1600
Wire Wire Line
	3700 2150 4250 2150
Wire Wire Line
	3700 2700 4250 2700
Wire Wire Line
	5900 1050 6450 1050
Wire Wire Line
	5900 1600 6450 1600
Wire Wire Line
	5900 2150 6450 2150
Wire Wire Line
	5900 2700 6450 2700
Wire Wire Line
	8800 1900 9400 1900
Wire Wire Line
	9900 1800 10350 1800
Wire Wire Line
	8800 2000 9400 2000
Wire Wire Line
	9900 2000 10350 2000
Wire Wire Line
	9900 2100 10350 2100
Wire Wire Line
	9900 2300 10350 2300
Text Label 9950 2300 0    60   ~ 0
RIGHT_SWITCH
Wire Wire Line
	8400 1400 9400 1400
Wire Wire Line
	8400 1500 9400 1500
$Comp
L CONN_01X02 P3
U 1 1 58AF67B0
P 10750 1650
F 0 "P3" H 10750 1800 50  0000 C CNN
F 1 "UART" V 10850 1650 50  0000 C CNN
F 2 "Pin_Headers:Pin_Header_Straight_1x02_Pitch2.54mm" H 10750 1650 50  0001 C CNN
F 3 "" H 10750 1650 50  0000 C CNN
	1    10750 1650
	1    0    0    -1  
$EndComp
Wire Wire Line
	9900 1600 10550 1600
Wire Wire Line
	9900 1700 10550 1700
$Comp
L CONN_01X04 P6
U 1 1 58AF75B9
P 8900 2350
F 0 "P6" H 8900 2600 50  0000 C CNN
F 1 "SPI" V 9000 2350 50  0000 C CNN
F 2 "Pin_Headers:Pin_Header_Straight_1x04_Pitch2.54mm" H 8900 2350 50  0001 C CNN
F 3 "" H 8900 2350 50  0000 C CNN
	1    8900 2350
	-1   0    0    1   
$EndComp
Wire Wire Line
	9100 2200 9400 2200
Wire Wire Line
	9100 2300 9400 2300
Wire Wire Line
	9100 2400 9400 2400
Wire Wire Line
	9100 2500 9400 2500
Text Label 9100 2200 0    60   ~ 0
MOSI
Text Label 9100 2300 0    60   ~ 0
MISO
Text Label 9100 2400 0    60   ~ 0
SCLK
Wire Wire Line
	8550 2700 9400 2700
Wire Wire Line
	8550 2800 9400 2800
Wire Wire Line
	8550 2900 9400 2900
Wire Wire Line
	8550 3000 9400 3000
Text Label 8550 2700 0    60   ~ 0
SHUTDOWN_SWITCH
Text Label 8550 2800 0    60   ~ 0
SYPHON_SWITCH
Text Label 8550 2900 0    60   ~ 0
PERF_SWITCH
Text Label 8550 3000 0    60   ~ 0
EXTRA_SWITCH
Text Label 8800 1400 0    60   ~ 0
SDA
Text Label 8800 1500 0    60   ~ 0
SCL
$Comp
L GND #PWR01
U 1 1 58AF9958
P 10050 6150
F 0 "#PWR01" H 10050 5900 50  0001 C CNN
F 1 "GND" H 10050 6000 50  0000 C CNN
F 2 "" H 10050 6150 50  0000 C CNN
F 3 "" H 10050 6150 50  0000 C CNN
	1    10050 6150
	1    0    0    -1  
$EndComp
$Comp
L VCC #PWR02
U 1 1 58AF9A4C
P 10050 5850
F 0 "#PWR02" H 10050 5700 50  0001 C CNN
F 1 "VCC" H 10050 6000 50  0000 C CNN
F 2 "" H 10050 5850 50  0000 C CNN
F 3 "" H 10050 5850 50  0000 C CNN
	1    10050 5850
	1    0    0    -1  
$EndComp
Wire Wire Line
	9900 1300 10100 1300
Wire Wire Line
	9900 1500 10100 1500
$Comp
L GND #PWR03
U 1 1 58AFA0C9
P 10100 1500
F 0 "#PWR03" H 10100 1250 50  0001 C CNN
F 1 "GND" H 10100 1350 50  0000 C CNN
F 2 "" H 10100 1500 50  0000 C CNN
F 3 "" H 10100 1500 50  0000 C CNN
	1    10100 1500
	0    -1   -1   0   
$EndComp
$Comp
L LED D1
U 1 1 58AFA674
P 9050 5150
F 0 "D1" H 9050 5250 50  0000 C CNN
F 1 "LED" H 9050 5050 50  0000 C CNN
F 2 "LEDs:LED_1206" H 9050 5150 50  0001 C CNN
F 3 "" H 9050 5150 50  0000 C CNN
	1    9050 5150
	0    -1   -1   0   
$EndComp
$Comp
L R R1
U 1 1 58AFA7BF
P 9050 4800
F 0 "R1" V 9130 4800 50  0000 C CNN
F 1 "220" V 9050 4800 50  0000 C CNN
F 2 "Resistors_SMD:R_1206_HandSoldering" V 8980 4800 50  0001 C CNN
F 3 "" H 9050 4800 50  0000 C CNN
	1    9050 4800
	1    0    0    -1  
$EndComp
Wire Wire Line
	9050 4950 9050 5000
$Comp
L GND #PWR04
U 1 1 58AFAA6F
P 9050 5400
F 0 "#PWR04" H 9050 5150 50  0001 C CNN
F 1 "GND" H 9050 5250 50  0000 C CNN
F 2 "" H 9050 5400 50  0000 C CNN
F 3 "" H 9050 5400 50  0000 C CNN
	1    9050 5400
	1    0    0    -1  
$EndComp
Wire Wire Line
	9050 5400 9050 5300
$Comp
L LED D2
U 1 1 58AFB49E
P 9000 3800
F 0 "D2" H 9000 3900 50  0000 C CNN
F 1 "LED" H 9000 3700 50  0000 C CNN
F 2 "LEDs:LED_1206" H 9000 3800 50  0001 C CNN
F 3 "" H 9000 3800 50  0000 C CNN
	1    9000 3800
	0    -1   -1   0   
$EndComp
$Comp
L R R2
U 1 1 58AFB4A4
P 9000 3450
F 0 "R2" V 9080 3450 50  0000 C CNN
F 1 "68" V 9000 3450 50  0000 C CNN
F 2 "Resistors_SMD:R_1206_HandSoldering" V 8930 3450 50  0001 C CNN
F 3 "" H 9000 3450 50  0000 C CNN
	1    9000 3450
	1    0    0    -1  
$EndComp
Wire Wire Line
	9000 3600 9000 3650
$Comp
L GND #PWR05
U 1 1 58AFB4B1
P 9000 4050
F 0 "#PWR05" H 9000 3800 50  0001 C CNN
F 1 "GND" H 9000 3900 50  0000 C CNN
F 2 "" H 9000 4050 50  0000 C CNN
F 3 "" H 9000 4050 50  0000 C CNN
	1    9000 4050
	1    0    0    -1  
$EndComp
Wire Wire Line
	9000 4050 9000 3950
Wire Wire Line
	9000 3300 9000 3100
Wire Wire Line
	9000 3100 9400 3100
$Comp
L LED D3
U 1 1 58AFC2F9
P 10000 3900
F 0 "D3" H 10000 4000 50  0000 C CNN
F 1 "LED" H 10000 3800 50  0000 C CNN
F 2 "LEDs:LED_1206" H 10000 3900 50  0001 C CNN
F 3 "" H 10000 3900 50  0000 C CNN
	1    10000 3900
	0    -1   -1   0   
$EndComp
$Comp
L R R3
U 1 1 58AFC2FF
P 10000 3550
F 0 "R3" V 10080 3550 50  0000 C CNN
F 1 "68" V 10000 3550 50  0000 C CNN
F 2 "Resistors_SMD:R_1206_HandSoldering" V 9930 3550 50  0001 C CNN
F 3 "" H 10000 3550 50  0000 C CNN
	1    10000 3550
	1    0    0    -1  
$EndComp
Wire Wire Line
	10000 3700 10000 3750
$Comp
L GND #PWR06
U 1 1 58AFC306
P 10000 4150
F 0 "#PWR06" H 10000 3900 50  0001 C CNN
F 1 "GND" H 10000 4000 50  0000 C CNN
F 2 "" H 10000 4150 50  0000 C CNN
F 3 "" H 10000 4150 50  0000 C CNN
	1    10000 4150
	1    0    0    -1  
$EndComp
Wire Wire Line
	10000 4150 10000 4050
Wire Wire Line
	10000 3400 10000 3200
Wire Wire Line
	10000 3200 9900 3200
$Comp
L CONN_01X04 P2
U 1 1 58AFD044
P 8200 1550
F 0 "P2" H 8200 1800 50  0000 C CNN
F 1 "I2C" V 8300 1550 50  0000 C CNN
F 2 "Pin_Headers:Pin_Header_Straight_1x04_Pitch2.54mm" H 8200 1550 50  0001 C CNN
F 3 "" H 8200 1550 50  0000 C CNN
	1    8200 1550
	-1   0    0    1   
$EndComp
Wire Wire Line
	8400 1600 8450 1600
$Comp
L GND #PWR07
U 1 1 58AFD3FC
P 8450 1800
F 0 "#PWR07" H 8450 1550 50  0001 C CNN
F 1 "GND" H 8450 1650 50  0000 C CNN
F 2 "" H 8450 1800 50  0000 C CNN
F 3 "" H 8450 1800 50  0000 C CNN
	1    8450 1800
	1    0    0    -1  
$EndComp
Wire Wire Line
	8400 1700 8450 1700
Wire Wire Line
	8450 1700 8450 1800
$Comp
L CONN_01X04 P4
U 1 1 58AFDFCC
P 9150 6000
F 0 "P4" H 9150 6250 50  0000 C CNN
F 1 "GND" V 9250 6000 50  0000 C CNN
F 2 "Pin_Headers:Pin_Header_Straight_1x04_Pitch2.54mm" H 9150 6000 50  0001 C CNN
F 3 "" H 9150 6000 50  0000 C CNN
	1    9150 6000
	-1   0    0    1   
$EndComp
$Comp
L GND #PWR08
U 1 1 58AFE087
P 9450 6250
F 0 "#PWR08" H 9450 6000 50  0001 C CNN
F 1 "GND" H 9450 6100 50  0000 C CNN
F 2 "" H 9450 6250 50  0000 C CNN
F 3 "" H 9450 6250 50  0000 C CNN
	1    9450 6250
	1    0    0    -1  
$EndComp
Wire Wire Line
	9350 5850 9450 5850
Wire Wire Line
	9450 5850 9450 6250
Wire Wire Line
	9350 6150 9450 6150
Connection ~ 9450 6150
Wire Wire Line
	9350 6050 9450 6050
Connection ~ 9450 6050
Wire Wire Line
	9350 5950 9450 5950
Connection ~ 9450 5950
$Comp
L CONN_01X03 P7
U 1 1 58AFE64E
P 10550 3000
F 0 "P7" H 10550 3200 50  0000 C CNN
F 1 "EXTRA_IO" V 10650 3000 50  0000 C CNN
F 2 "Pin_Headers:Pin_Header_Straight_1x03_Pitch2.54mm" H 10550 3000 50  0001 C CNN
F 3 "" H 10550 3000 50  0000 C CNN
	1    10550 3000
	1    0    0    -1  
$EndComp
Wire Wire Line
	9900 3100 10350 3100
Wire Wire Line
	9900 3000 10350 3000
Wire Wire Line
	9900 2800 10200 2800
Wire Wire Line
	10200 2800 10200 2900
Wire Wire Line
	10200 2900 10350 2900
Text Label 10000 2800 0    60   ~ 0
PIN_32
Text Label 10000 3000 0    60   ~ 0
PIN_36
Text Label 10000 3100 0    60   ~ 0
PIN_38
$Comp
L CONN_01X02 P1
U 1 1 58AF9799
P 9800 6000
F 0 "P1" H 9800 6150 50  0000 C CNN
F 1 "POWER_IN" V 9900 6000 50  0000 C CNN
F 2 "XT60:XT60" H 9800 6000 50  0001 C CNN
F 3 "" H 9800 6000 50  0000 C CNN
	1    9800 6000
	-1   0    0    1   
$EndComp
Wire Wire Line
	10000 6050 10050 6050
Wire Wire Line
	10050 6050 10050 6150
Wire Wire Line
	10050 5850 10050 5950
Wire Wire Line
	10050 5950 10000 5950
$Comp
L GND #PWR09
U 1 1 58B00E9E
P 9700 5000
F 0 "#PWR09" H 9700 4750 50  0001 C CNN
F 1 "GND" H 9700 4850 50  0000 C CNN
F 2 "" H 9700 5000 50  0000 C CNN
F 3 "" H 9700 5000 50  0000 C CNN
	1    9700 5000
	-1   0    0    1   
$EndComp
$Comp
L VCC #PWR010
U 1 1 58B00F3C
P 10150 5000
F 0 "#PWR010" H 10150 4850 50  0001 C CNN
F 1 "VCC" H 10150 5150 50  0000 C CNN
F 2 "" H 10150 5000 50  0000 C CNN
F 3 "" H 10150 5000 50  0000 C CNN
	1    10150 5000
	1    0    0    -1  
$EndComp
$Comp
L PWR_FLAG #FLG011
U 1 1 58B00FDA
P 10150 5150
F 0 "#FLG011" H 10150 5245 50  0001 C CNN
F 1 "PWR_FLAG" H 10150 5330 50  0000 C CNN
F 2 "" H 10150 5150 50  0000 C CNN
F 3 "" H 10150 5150 50  0000 C CNN
	1    10150 5150
	-1   0    0    1   
$EndComp
$Comp
L PWR_FLAG #FLG012
U 1 1 58B01078
P 9700 5150
F 0 "#FLG012" H 9700 5245 50  0001 C CNN
F 1 "PWR_FLAG" H 9700 5330 50  0000 C CNN
F 2 "" H 9700 5150 50  0000 C CNN
F 3 "" H 9700 5150 50  0000 C CNN
	1    9700 5150
	-1   0    0    1   
$EndComp
Wire Wire Line
	9700 5150 9700 5000
Wire Wire Line
	10150 5000 10150 5150
NoConn ~ 9400 3200
NoConn ~ 9400 2600
NoConn ~ 9900 2900
NoConn ~ 9900 2700
NoConn ~ 9900 2600
NoConn ~ 9900 2500
NoConn ~ 9900 2400
NoConn ~ 9900 2200
NoConn ~ 9400 2100
NoConn ~ 9400 1700
NoConn ~ 9400 1650
NoConn ~ 9900 1400
NoConn ~ 9900 1900
NoConn ~ 9400 1600
$Comp
L CP C1
U 1 1 58B29D6B
P 4700 4300
F 0 "C1" H 4725 4400 50  0000 L CNN
F 1 "CP" H 4725 4200 50  0000 L CNN
F 2 "Capacitors_SMD:CP_Elec_10x10" H 4738 4150 50  0001 C CNN
F 3 "" H 4700 4300 50  0000 C CNN
	1    4700 4300
	1    0    0    -1  
$EndComp
$Comp
L CP C2
U 1 1 58B29E2D
P 6000 4300
F 0 "C2" H 6025 4400 50  0000 L CNN
F 1 "CP" H 6025 4200 50  0000 L CNN
F 2 "Capacitors_SMD:CP_Elec_10x10" H 6038 4150 50  0001 C CNN
F 3 "" H 6000 4300 50  0000 C CNN
	1    6000 4300
	1    0    0    -1  
$EndComp
Wire Wire Line
	4700 4100 4700 4150
Wire Wire Line
	6000 4100 6000 4150
$Comp
L GND #PWR013
U 1 1 58B2A04E
P 5350 4700
F 0 "#PWR013" H 5350 4450 50  0001 C CNN
F 1 "GND" H 5350 4550 50  0000 C CNN
F 2 "" H 5350 4700 50  0000 C CNN
F 3 "" H 5350 4700 50  0000 C CNN
	1    5350 4700
	1    0    0    -1  
$EndComp
Wire Wire Line
	4700 4450 4700 4550
Wire Wire Line
	4700 4550 6000 4550
Connection ~ 5350 4550
Wire Wire Line
	6000 4550 6000 4450
Connection ~ 4700 4100
Connection ~ 6000 4100
$Comp
L VCC #PWR014
U 1 1 58B2A83E
P 4300 4000
F 0 "#PWR014" H 4300 3850 50  0001 C CNN
F 1 "VCC" H 4300 4150 50  0000 C CNN
F 2 "" H 4300 4000 50  0000 C CNN
F 3 "" H 4300 4000 50  0000 C CNN
	1    4300 4000
	1    0    0    -1  
$EndComp
Wire Wire Line
	4300 4000 4300 4100
Text Label 6400 4100 0    60   ~ 0
V_REG_5V
Text Label 10100 1300 0    60   ~ 0
V_REG_5V
Text Label 8450 1600 0    60   ~ 0
V_REG_5V
Wire Wire Line
	9050 4500 9050 4650
Text Label 9050 4500 0    60   ~ 0
V_REG_5V
Wire Wire Line
	9400 1300 9100 1300
Wire Wire Line
	9100 1300 9100 1200
$Comp
L +3V3 #PWR015
U 1 1 58B2D59C
P 9100 1200
F 0 "#PWR015" H 9100 1050 50  0001 C CNN
F 1 "+3V3" H 9100 1340 50  0000 C CNN
F 2 "" H 9100 1200 50  0000 C CNN
F 3 "" H 9100 1200 50  0000 C CNN
	1    9100 1200
	1    0    0    -1  
$EndComp
$Comp
L +3V3 #PWR016
U 1 1 58B2D966
P 10550 5000
F 0 "#PWR016" H 10550 4850 50  0001 C CNN
F 1 "+3V3" H 10550 5140 50  0000 C CNN
F 2 "" H 10550 5000 50  0000 C CNN
F 3 "" H 10550 5000 50  0000 C CNN
	1    10550 5000
	1    0    0    -1  
$EndComp
$Comp
L PWR_FLAG #FLG017
U 1 1 58B2DA10
P 10550 5150
F 0 "#FLG017" H 10550 5245 50  0001 C CNN
F 1 "PWR_FLAG" H 10550 5330 50  0000 C CNN
F 2 "" H 10550 5150 50  0000 C CNN
F 3 "" H 10550 5150 50  0000 C CNN
	1    10550 5150
	-1   0    0    1   
$EndComp
Wire Wire Line
	10550 5150 10550 5000
Wire Wire Line
	5350 4550 5350 4700
Wire Wire Line
	4300 4100 6400 4100
$EndSCHEMATC
